{
  "renderNullAs": "\\-",
  "taskCompletionTracking": false,
  "taskCompletionText": "completion",
  "warnOnEmptyResult": true,
  "refreshEnabled": true,
  "refreshInterval": 2500,
  "defaultDateFormat": "MMMM dd, yyyy",
  "defaultDateTimeFormat": "h:mm a - MMMM dd, yyyy",
  "maxRecursiveRenderDepth": 4,
  "tableIdColumnName": "",
  "tableGroupColumnName": "",
  "allowHtml": true,
  "inlineQueryPrefix": "=",
  "inlineJsQueryPrefix": "$=",
  "inlineQueriesInCodeblocks": true,
  "enableDataviewJs": true,
  "enableInlineDataviewJs": true,
  "prettyRenderInlineFields": true
}